%YAML 1.1
%TAG !u! tag:unity3d.com,2011:
--- !u!114 &11400000
MonoBehaviour:
  m_ObjectHideFlags: 0
  m_CorrespondingSourceObject: {fileID: 0}
  m_PrefabInstance: {fileID: 0}
  m_PrefabAsset: {fileID: 0}
  m_GameObject: {fileID: 0}
  m_Enabled: 1
  m_EditorHideFlags: 0
  m_Script: {fileID: 11500000, guid: bc45b9b3b3ea82042b61eeb40a252ac2, type: 3}
  m_Name: ConfigCard_2030
  m_EditorClassIdentifier: 
  cardName: 2030
  cardNameRu: 2030
  power: 5
  cardValue: 29
  initiativeMinValue: 2
  initiativeMaxValue: 4
  smallImage: {fileID: 21300000, guid: ee087019db76ff446b750e39d1728fb2, type: 3}
  bigImage: {fileID: 21300000, guid: 332900c8479d7ac45ab70e30ef90bbb0, type: 3}
  feature: "\u0415\u0441\u043B\u0438 \u0432\u044B \u0432 \u0437\u0430\u0449\u0438\u0442\u0435:\n+1
    Power"
  featureType: 1
  prerequisite: 2
  isWorksOnOpponent: 0
  isCounterattack: 0
  powerMod: 1
  iniMod: 0
  knockoutMod: 0
