%YAML 1.1
%TAG !u! tag:unity3d.com,2011:
--- !u!114 &11400000
MonoBehaviour:
  m_ObjectHideFlags: 0
  m_CorrespondingSourceObject: {fileID: 0}
  m_PrefabInstance: {fileID: 0}
  m_PrefabAsset: {fileID: 0}
  m_GameObject: {fileID: 0}
  m_Enabled: 1
  m_EditorHideFlags: 0
  m_Script: {fileID: 11500000, guid: 8545369624339a6479377d1fcec55706, type: 3}
  m_Name: ConfigCard_2005
  m_EditorClassIdentifier: 
  cardName: 2005
  cardNameRu: "\u041C\u0438\u0441\u0442\u0440\u0430\u043B\u044C"
  description: "\u0427\u0440\u0435\u0437\u0432\u044B\u0447\u0430\u0439\u043D\u0430\u044F
    \u0441\u043C\u0435\u0440\u0442\u043E\u043D\u043E\u0441\u043D\u043E\u0441\u0442\u044C,
    \u043D\u0435\u0432\u043E\u043E\u0431\u0440\u0430\u0437\u0438\u043C\u0430\u044F
    \u043B\u0451\u0433\u043A\u043E\u0441\u0442\u044C"
  power: 4
  cardValue: 34
  initiativeMinValue: 2
  initiativeMaxValue: 4
  smallImage: {fileID: 21300000, guid: 13f23c820f494af46812ca5b45e8a5f6, type: 3}
  bigImage: {fileID: 21300000, guid: 8dda2438bc5644346a4bb39a11b579f3, type: 3}
  feature: "\u0415\u0441\u043B\u0438 \u0437\u0430\u0449\u0438\u0442\u0430 \u0443\u0441\u043F\u0435\u0448\u043D\u0430:\n+3
    Initiative"
  featureType: 1
  prerequisite: 4
  isWorksOnOpponent: 0
  isCounterattack: 0
  powerMod: 0
  iniMod: 3
  knockoutMod: 0
