%YAML 1.1
%TAG !u! tag:unity3d.com,2011:
--- !u!114 &11400000
MonoBehaviour:
  m_ObjectHideFlags: 0
  m_CorrespondingSourceObject: {fileID: 0}
  m_PrefabInstance: {fileID: 0}
  m_PrefabAsset: {fileID: 0}
  m_GameObject: {fileID: 0}
  m_Enabled: 1
  m_EditorHideFlags: 0
  m_Script: {fileID: 11500000, guid: d235c7d99218f4a4487151fb887cce17, type: 3}
  m_Name: ConfigCard_2023
  m_EditorClassIdentifier: 
  cardName: 2023
  cardNameRu: "\u041D\u0438\u0430\u0432\u0438"
  description: "\u0415\u0434\u0432\u0430 \u043E\u0449\u0443\u0442\u0438\u043C\u043E\u0435
    \u043D\u0430\u043C\u0435\u0440\u0435\u043D\u0438\u0435"
  power: 5
  cardValue: 36
  initiativeMinValue: 2
  initiativeMaxValue: 5
  smallImage: {fileID: 21300000, guid: fd137aa8a585606439d273f752d77c09, type: 3}
  bigImage: {fileID: 21300000, guid: be6bccffe3b4d5541847c2dc62bf8f1f, type: 3}
  feature: "\u0415\u0441\u043B\u0438 \u0432\u044B \u0432 \u0437\u0430\u0449\u0438\u0442\u0435:\n+2
    Knockout\n-2 Initiative"
  featureType: 1
  prerequisite: 2
  isWorksOnOpponent: 0
  isCounterattack: 0
  powerMod: 0
  iniMod: -2
  knockoutMod: 2
