%YAML 1.1
%TAG !u! tag:unity3d.com,2011:
--- !u!114 &11400000
MonoBehaviour:
  m_ObjectHideFlags: 0
  m_CorrespondingSourceObject: {fileID: 0}
  m_PrefabInstance: {fileID: 0}
  m_PrefabAsset: {fileID: 0}
  m_GameObject: {fileID: 0}
  m_Enabled: 1
  m_EditorHideFlags: 0
  m_Script: {fileID: 11500000, guid: 4d7e1be8675e0da468af74e6f93eea16, type: 3}
  m_Name: ConfigCard_2013
  m_EditorClassIdentifier: 
  cardName: 2013
  cardNameRu: "\u041F\u043E\u043A\u0440\u043E\u0432 \u043D\u043E\u0447\u0438"
  description: "\u041D\u043E\u0447\u044C \u043E\u043A\u0443\u0442\u0430\u0435\u0442
    \u0442\u0430\u0439\u043D\u044B \u0432\u0443\u0430\u043B\u044C\u044E \u0441\u043D\u043E\u0432"
  power: 2
  cardValue: 16
  initiativeMinValue: 0
  initiativeMaxValue: 2
  smallImage: {fileID: 21300000, guid: 89d2149cf32e3c048a10ae642228d2b7, type: 3}
  bigImage: {fileID: 21300000, guid: 24837ba4d6b7eb7448ea8f1f28b330aa, type: 3}
  feature: +1 Power
  featureType: 1
  prerequisite: 0
  isWorksOnOpponent: 0
  isCounterattack: 0
  powerMod: 1
  iniMod: 0
  knockoutMod: 0
