%YAML 1.1
%TAG !u! tag:unity3d.com,2011:
--- !u!114 &11400000
MonoBehaviour:
  m_ObjectHideFlags: 0
  m_CorrespondingSourceObject: {fileID: 0}
  m_PrefabInstance: {fileID: 0}
  m_PrefabAsset: {fileID: 0}
  m_GameObject: {fileID: 0}
  m_Enabled: 1
  m_EditorHideFlags: 0
  m_Script: {fileID: 11500000, guid: 9b971c098170ab846b0c83066c1c0c78, type: 3}
  m_Name: ConfigCard_2011
  m_EditorClassIdentifier: 
  cardName: 2011
  cardNameRu: "\u0411\u0443\u0440\u0435\u0439"
  description: "\u041E\u0442\u0440\u0435\u043A\u0438\u0441\u044C \u043E\u0442 \u0441\u043E\u043C\u043D\u0435\u043D\u0438\u0439"
  power: 4
  cardValue: 36
  initiativeMinValue: 0
  initiativeMaxValue: 4
  smallImage: {fileID: 21300000, guid: 6172592b1d0dc714cad14b7e193143a1, type: 3}
  bigImage: {fileID: 21300000, guid: 2d713179c677a3841af090ea8c6905fc, type: 3}
  feature: "-2 Initiative \u0441\u043E\u043F\u0435\u0440\u043D\u0438\u043A\u0443"
  featureType: 1
  prerequisite: 0
  isWorksOnOpponent: 1
  isCounterattack: 0
  powerMod: 0
  iniMod: -2
  knockoutMod: 0
