%YAML 1.1
%TAG !u! tag:unity3d.com,2011:
--- !u!114 &11400000
MonoBehaviour:
  m_ObjectHideFlags: 0
  m_CorrespondingSourceObject: {fileID: 0}
  m_PrefabInstance: {fileID: 0}
  m_PrefabAsset: {fileID: 0}
  m_GameObject: {fileID: 0}
  m_Enabled: 1
  m_EditorHideFlags: 0
  m_Script: {fileID: 11500000, guid: 042359f50ce1fbd4c8cb461721c3fd58, type: 3}
  m_Name: ConfigCard_1012
  m_EditorClassIdentifier: 
  cardName: 1012
  cardNameRu: "\u0421\u0443\u0445\u043E\u0432\u0435\u0439"
  description: "\u0411\u0435\u0441\u043A\u0440\u0430\u0439\u043D\u044F\u044F \u0441\u0442\u0435\u043F\u0435\u043D\u044C
    \u043C\u0430\u0441\u0442\u0435\u0440\u0441\u0442\u0432\u0430"
  power: 4
  cardValue: 31
  initiativeMinValue: 2
  initiativeMaxValue: 4
  smallImage: {fileID: 21300000, guid: 22954b1a96a3d584289edb11a0b4189e, type: 3}
  bigImage: {fileID: 21300000, guid: 2dc703516fca8264fb6192d89a076097, type: 3}
  feature: "\u0415\u0441\u043B\u0438 \u0432\u044B \u0432 \u0430\u0442\u0430\u043A\u0435:\n+1
    Knockout"
  featureType: 1
  prerequisite: 1
  isWorksOnOpponent: 0
  isCounterattack: 0
  powerMod: 0
  iniMod: 0
  knockoutMod: 1
